{
  "project_info": {
    "project_number": "58116691646",
    "firebase_url": "https://plataformaupt-73467.firebaseio.com",
    "project_id": "plataformaupt-73467",
    "storage_bucket": "plataformaupt-73467.appspot.com"
  },
  "client": [
    {
      "client_info": {
        "mobilesdk_app_id": "1:58116691646:android:0c8d5adbfd7b83da2c70ef",
        "android_client_info": {
          "package_name": "com.example.plataformaupt"
        }
      },
      "oauth_client": [
        {
          "client_id": "58116691646-uhurs38e481416a34vjbg9fns5fb7phj.apps.googleusercontent.com",
          "client_type": 1,
          "android_info": {
            "package_name": "com.example.plataformaupt",
            "certificate_hash": "e7431ba99907543dfd78deae8cc78a22ad57573f"
          }
        },
        {
          "client_id": "58116691646-o0pfel8iojfsht50rd4d52ljuh5ta4ii.apps.googleusercontent.com",
          "client_type": 3
        }
      ],
      "api_key": [
        {
          "current_key": "AIzaSyAdzjXfA7J6OyHgXskfz0QDz7X3AMuoIG4"
        }
      ],
      "services": {
        "appinvite_service": {
          "other_platform_oauth_client": [
            {
              "client_id": "58116691646-o0pfel8iojfsht50rd4d52ljuh5ta4ii.apps.googleusercontent.com",
              "client_type": 3
            }
          ]
        }
      }
    }
  ],
  "configuration_version": "1"
}